Phased and unphased data • junctions
…
Simulating data

To have some example data, we will first simulate some artificial
data. We can do so as follows:

simulated_data <- sim_phased_unphased(pop_size = 1000,
                                      freq_ancestor_1 = 0.5,
                                      total_runtime = 100,
                                      size_in_morgan = 1,
                                      time_points = 100,
                                      markers = 1000)

simulated_data

## # A tibble: 10,000 × 5
##     time individual location anc_chrom_1 anc_chrom_2
##    <dbl>      <dbl>    <dbl>       <dbl>       <dbl>
##  1   100          0 0.000104           0           1
##  2   100          0 0.00165            0           1
##  3   100          0 0.00248            1           1
##  4   100          0 0.00402            1           1
##  5   100          0 0.00450            1           0
##  6   100          0 0.00721            0           0
##  7   100          0 0.00740            0           0
##  8   100          0 0.00751            0           0
##  9   100          0 0.00866            0           0
## 10   100          0 0.0109             0           0
## # ℹ 9,990 more rows
…
simulated_data <- sim_phased_unphased(pop_size = 1000,
                                        freq_ancestor_1 = 0.5,
                                        total_runtime = 100,
                                        size_in_morgan = 1,
                                        time_points = 100,
                                        markers = 1000,
                                        error_rate = 0.01)

simulated_data$true_data

## # A tibble: 10,000 × 5
##     time individual location anc_chrom_1 anc_chrom_2
##    <dbl>      <dbl>    <dbl>       <dbl>       <dbl>
##  1   100          0 0.000958           0           0
##  2   100          0 0.00240            1           0
##  3   100          0 0.00249            1           0
##  4   100          0 0.00408            1           0
##  5   100          0 0.00629            1           0
##  6   100          0 0.00707            1           0
##  7   100          0 0.00842            1           0
##  8   100          0 0.00851            1           0
##  9   100          0 0.00876            1           0
## 10   100          0 0.00908            1           0
## # ℹ 9,990 more rows

simulated_data$phased_data

## # A tibble: 10,000 × 5
##     time individual location anc_chrom_1 anc_chrom_2
##    <dbl>      <dbl>    <dbl>       <dbl>       <dbl>
##  1   100          0 0.000958           0           0
##  2   100          0 0.00240            1           0
##  3   100          0 0.00249            1           0
##  4   100          0 0.00408            1           0
##  5   100          0 0.00629            1           0
##  6   100          0 0.00707            1           0
##  7   100          0 0.00842            1           0
##  8   100          0 0.00851            1           0
##  9   100          0 0.00876            1           0
## 10   100          0 0.00908            1           0
## # ℹ 9,990 more rows
…
